# Fdb version 3
["biber the_n_queens_problem"] 1567183408 "the_n_queens_problem.bcf" "the_n_queens_problem.bbl" "the_n_queens_problem" 1567183432
  "analysis.bcf" 0 -1 0 ""
  "analysis.bib" 0 -1 0 ""
  "the_n_queens_problem.bcf" 1567183432 88397 40aa2f4acf0079c5afa2044449979836 ""
  (generated)
  "the_n_queens_problem.bbl"
["pdflatex"] 1567183431 "the_n_queens_problem.tex" "the_n_queens_problem.pdf" "the_n_queens_problem" 1567183432
  "/etc/texmf/web2c/texmf.cnf" 1566069327 475 c0e671620eb5563b2130f56340a5fde8 ""
  "/usr/share/texlive/texmf-dist/fonts/map/fontname/texfonts.map" 1511824771 3332 103109f5612ad95229751940c61aada0 ""
  "/usr/share/texlive/texmf-dist/fonts/tfm/public/cm/cmbx10.tfm" 1480098701 1328 c834bbb027764024c09d3d2bf908b5f0 ""
  "/usr/share/texlive/texmf-dist/fonts/tfm/public/cm/cmbx12.tfm" 1480098701 1324 c910af8c371558dc20f2d7822f66fe64 ""
  "/usr/share/texlive/texmf-dist/fonts/tfm/public/cm/cmcsc10.tfm" 1480098701 1300 63a6111ee6274895728663cf4b4e7e81 ""
  "/usr/share/texlive/texmf-dist/fonts/tfm/public/cm/cmmi12.tfm" 1480098701 1524 4414a8315f39513458b80dfc63bff03a ""
  "/usr/share/texlive/texmf-dist/fonts/tfm/public/cm/cmmi6.tfm" 1480098701 1512 f21f83efb36853c0b70002322c1ab3ad ""
  "/usr/share/texlive/texmf-dist/fonts/tfm/public/cm/cmmi8.tfm" 1480098701 1520 eccf95517727cb11801f4f1aee3a21b4 ""
  "/usr/share/texlive/texmf-dist/fonts/tfm/public/cm/cmr12.tfm" 1480098701 1288 655e228510b4c2a1abe905c368440826 ""
  "/usr/share/texlive/texmf-dist/fonts/tfm/public/cm/cmr17.tfm" 1480098701 1292 296a67155bdbfc32aa9c636f21e91433 ""
  "/usr/share/texlive/texmf-dist/fonts/tfm/public/cm/cmr6.tfm" 1480098701 1300 b62933e007d01cfd073f79b963c01526 ""
  "/usr/share/texlive/texmf-dist/fonts/tfm/public/cm/cmr8.tfm" 1480098701 1292 21c1c5bfeaebccffdb478fd231a0997d ""
  "/usr/share/texlive/texmf-dist/fonts/tfm/public/cm/cmsy10.tfm" 1480098701 1124 6c73e740cf17375f03eec0ee63599741 ""
  "/usr/share/texlive/texmf-dist/fonts/tfm/public/cm/cmsy6.tfm" 1480098701 1116 933a60c408fc0a863a92debe84b2d294 ""
  "/usr/share/texlive/texmf-dist/fonts/tfm/public/cm/cmsy8.tfm" 1480098701 1120 8b7d695260f3cff42e636090a8002094 ""
  "/usr/share/texlive/texmf-dist/fonts/tfm/public/cm/cmti10.tfm" 1480098701 1480 aa8e34af0eb6a2941b776984cf1dfdc4 ""
  "/usr/share/texlive/texmf-dist/fonts/tfm/public/cm/cmtt10.tfm" 1480098701 768 1321e9409b4137d6fb428ac9dc956269 ""
  "/usr/share/texlive/texmf-dist/fonts/type1/public/amsfonts/cm/cmbx10.pfb" 1480098733 34811 78b52f49e893bcba91bd7581cdc144c0 ""
  "/usr/share/texlive/texmf-dist/fonts/type1/public/amsfonts/cm/cmbx12.pfb" 1480098733 32080 340ef9bf63678554ee606688e7b5339d ""
  "/usr/share/texlive/texmf-dist/fonts/type1/public/amsfonts/cm/cmcsc10.pfb" 1480098733 32001 6aeea3afe875097b1eb0da29acd61e28 ""
  "/usr/share/texlive/texmf-dist/fonts/type1/public/amsfonts/cm/cmr10.pfb" 1480098733 35752 024fb6c41858982481f6968b5fc26508 ""
  "/usr/share/texlive/texmf-dist/fonts/type1/public/amsfonts/cm/cmr12.pfb" 1480098733 32722 d7379af29a190c3f453aba36302ff5a9 ""
  "/usr/share/texlive/texmf-dist/fonts/type1/public/amsfonts/cm/cmr17.pfb" 1480098733 32362 179c33bbf43f19adbb3825bb4e36e57a ""
  "/usr/share/texlive/texmf-dist/fonts/type1/public/amsfonts/cm/cmti10.pfb" 1480098733 37944 359e864bd06cde3b1cf57bb20757fb06 ""
  "/usr/share/texlive/texmf-dist/fonts/type1/public/amsfonts/cm/cmtt10.pfb" 1480098733 31099 c85edf1dd5b9e826d67c9c7293b6786c ""
  "/usr/share/texlive/texmf-dist/tex/context/base/mkii/supp-pdf.mkii" 1480098806 71627 94eb9990bed73c364d7f53f960cc8c5b ""
  "/usr/share/texlive/texmf-dist/tex/generic/oberdiek/etexcmds.sty" 1480098815 7612 729a8cc22a1ee0029997c7f74717ae05 ""
  "/usr/share/texlive/texmf-dist/tex/generic/oberdiek/ifluatex.sty" 1480098815 7324 2310d1247db0114eb4726807c8837a0e ""
  "/usr/share/texlive/texmf-dist/tex/generic/oberdiek/ifpdf.sty" 1490564930 1251 d170e11a3246c3392bc7f59595af42cb ""
  "/usr/share/texlive/texmf-dist/tex/generic/oberdiek/infwarerr.sty" 1480098815 8253 473e0e41f9adadb1977e8631b8f72ea6 ""
  "/usr/share/texlive/texmf-dist/tex/generic/oberdiek/kvdefinekeys.sty" 1480098815 5152 b67a3a964ad9851e095110c854a1d461 ""
  "/usr/share/texlive/texmf-dist/tex/generic/oberdiek/kvsetkeys.sty" 1480098815 14040 ac8866aac45982ac84021584b0abb252 ""
  "/usr/share/texlive/texmf-dist/tex/generic/oberdiek/ltxcmds.sty" 1480098815 18425 5b3c0c59d76fac78978b5558e83c1f36 ""
  "/usr/share/texlive/texmf-dist/tex/generic/oberdiek/pdftexcmds.sty" 1517006633 20151 787afc7acba22d228640bdc06ce1177c ""
  "/usr/share/texlive/texmf-dist/tex/generic/xstring/xstring.sty" 1480098819 144 0ca8d67b000b795a4d9ec000e0fd09c7 ""
  "/usr/share/texlive/texmf-dist/tex/generic/xstring/xstring.tex" 1480098819 54373 fd4487ae3e45d4074bc89aea1d2b6807 ""
  "/usr/share/texlive/texmf-dist/tex/latex/base/article.cls" 1480098821 19821 310da678527a7dfe2a02c88af38079b7 ""
  "/usr/share/texlive/texmf-dist/tex/latex/base/ifthen.sty" 1480098821 5159 a08c9bbd48fc492f15b22e458bef961f ""
  "/usr/share/texlive/texmf-dist/tex/latex/base/size10.clo" 1480098821 8292 e897c12e1e886ce77fe26afc5d470886 ""
  "/usr/share/texlive/texmf-dist/tex/latex/biblatex/bbx/numeric.bbx" 1510525977 1672 30daac53a3b9ecb172365211fcaa2ba2 ""
  "/usr/share/texlive/texmf-dist/tex/latex/biblatex/bbx/standard.bbx" 1510525977 24058 cd811a83cd43b6abd1663d66fd536cfd ""
  "/usr/share/texlive/texmf-dist/tex/latex/biblatex/biblatex.cfg" 1480098822 69 249fa6df04d948e51b6d5c67bea30c42 ""
  "/usr/share/texlive/texmf-dist/tex/latex/biblatex/biblatex.def" 1514674017 87588 5ceee97ec5ee6a4dab49ef4a6dc28a1b ""
  "/usr/share/texlive/texmf-dist/tex/latex/biblatex/biblatex.sty" 1514674017 424118 1402b1a3a696e6f4e49a786cce7813a4 ""
  "/usr/share/texlive/texmf-dist/tex/latex/biblatex/blx-compat.def" 1514674017 13194 9fbd4a8c96337f2861e1135f26105b22 ""
  "/usr/share/texlive/texmf-dist/tex/latex/biblatex/blx-dm.def" 1510525977 30073 10669ddd7ddf93c5f51a4cd567da1d0d ""
  "/usr/share/texlive/texmf-dist/tex/latex/biblatex/cbx/numeric.cbx" 1510525977 4578 2d37f6a8c72f47aacef79870545a713d ""
  "/usr/share/texlive/texmf-dist/tex/latex/biblatex/lbx/english.lbx" 1514674017 36428 276fde039b559ca03d7fa2a27c765234 ""
  "/usr/share/texlive/texmf-dist/tex/latex/etoolbox/etoolbox.sty" 1518389458 43862 d90315ae4a46ef887a38b4ccba021f91 ""
  "/usr/share/texlive/texmf-dist/tex/latex/graphics-cfg/graphics.cfg" 1480098830 1224 978390e9c2234eab29404bc21b268d1e ""
  "/usr/share/texlive/texmf-dist/tex/latex/graphics-def/pdftex.def" 1515537368 17334 520b9b85ad8a2a48eda3f643e27a5179 ""
  "/usr/share/texlive/texmf-dist/tex/latex/graphics/graphics.sty" 1498427532 15275 7d676729b1bedd3e7f3c6717affb366c ""
  "/usr/share/texlive/texmf-dist/tex/latex/graphics/graphicx.sty" 1498427532 9066 649f2ccf62888e3d8c3e57256b70b8e1 ""
  "/usr/share/texlive/texmf-dist/tex/latex/graphics/keyval.sty" 1480098830 2594 d18d5e19aa8239cf867fa670c556d2e9 ""
  "/usr/share/texlive/texmf-dist/tex/latex/graphics/trig.sty" 1480098830 3980 0a268fbfda01e381fa95821ab13b6aee ""
  "/usr/share/texlive/texmf-dist/tex/latex/latexconfig/epstopdf-sys.cfg" 1480098833 678 4792914a8f45be57bb98413425e4c7af ""
  "/usr/share/texlive/texmf-dist/tex/latex/logreq/logreq.def" 1480098833 1620 fb1c32b818f2058eca187e5c41dfae77 ""
  "/usr/share/texlive/texmf-dist/tex/latex/logreq/logreq.sty" 1480098833 6187 b27afc771af565d3a9ff1ca7d16d0d46 ""
  "/usr/share/texlive/texmf-dist/tex/latex/oberdiek/epstopdf-base.sty" 1480098836 12095 5337833c991d80788a43d3ce26bd1c46 ""
  "/usr/share/texlive/texmf-dist/tex/latex/oberdiek/grfext.sty" 1480098836 7075 2fe3d848bba95f139de11ded085e74aa ""
  "/usr/share/texlive/texmf-dist/tex/latex/oberdiek/kvoptions.sty" 1480098836 22417 1d9df1eb66848aa31b18a593099cf45c ""
  "/usr/share/texlive/texmf-dist/tex/latex/url/url.sty" 1480098842 12796 8edb7d69a20b857904dd0ea757c14ec9 ""
  "/usr/share/texlive/texmf-dist/web2c/texmf.cnf" 1520210507 32485 c64754543d8ac501bea6e75e209ea521 ""
  "/usr/share/texmf/web2c/texmf.cnf" 1520210507 32485 c64754543d8ac501bea6e75e209ea521 ""
  "/var/lib/texmf/fonts/map/pdftex/updmap/pdftex.map" 1566069517 2700761 ac0584cc9514ab21918550a6948c4ee2 ""
  "/var/lib/texmf/web2c/pdftex/pdflatex.fmt" 1566069530 4127567 92bde2274d3397b3f2ddea0ad4135bd4 ""
  "images/board_coordinates.png" 1567106688 31766 9e3b56b97c0df9933ecab0326b6fcc6c ""
  "images/board_one_queen.png" 1567059126 25244 61ceb2973e1cfff0d843565801971dc8 ""
  "images/board_two_queens.png" 1567104771 33985 81654320a19ca9fa0200e175e06f4c39 ""
  "the_n_queens_problem.aux" 1567183432 1965 a1993592decdf0271463f19b08805503 ""
  "the_n_queens_problem.bbl" 1567103552 2389 3b29859320f11012b2e44343d20c8904 "biber the_n_queens_problem"
  "the_n_queens_problem.lof" 1567183432 475 b84a766e9b605319a5f66442f5b5e6ec ""
  "the_n_queens_problem.run.xml" 1567183432 2415 4754b3ee3c1ec09807467f3119183526 ""
  "the_n_queens_problem.tex" 1567183404 2101 7e4e15e11dc595368136a7342375ef15 ""
  "the_n_queens_problem.toc" 1567183432 635 73a82bde8072dec3afc2fd50fbbf9303 ""
  (generated)
  "analysis.aux"
  "analysis.log"
  "analysis.pdf"
  "the_n_queens_problem.run.xml"
  "analysis.toc"
  "the_n_queens_problem.lof"
  "analysis.run.xml"
  "the_n_queens_problem.toc"
  "the_n_queens_problem.log"
  "analysis.bcf"
  "the_n_queens_problem.pdf"
  "the_n_queens_problem.aux"
  "analysis.lof"
  "the_n_queens_problem.bcf"
