\boolfalse {citerequest}\boolfalse {citetracker}\boolfalse {pagetracker}\boolfalse {backtracker}\relax 
\defcounter {refsection}{0}\relax 
\contentsline {section}{\numberline {1}Problem explanation}{1}
\defcounter {refsection}{0}\relax 
\contentsline {paragraph}{}{1}
\defcounter {refsection}{0}\relax 
\contentsline {paragraph}{}{1}
\defcounter {refsection}{0}\relax 
\contentsline {paragraph}{}{1}
\defcounter {refsection}{0}\relax 
\contentsline {section}{\numberline {2}Problem analysis}{3}
\defcounter {refsection}{0}\relax 
\contentsline {paragraph}{}{3}
\defcounter {refsection}{0}\relax 
\contentsline {section}{References}{5}
